…
                         <character>
        [1]                     <NA>
        [2]                     <NA>
        [3]                     <NA>
        [4]                     <NA>
        [5]                     <NA>
        ...                      ...
  [1637932]                       NA
  [1637933]                       NA
  [1637934]                       NA
  [1637935]                       NA
  [1637936]                       NA
  -------
  seqinfo: 24 sequences from an unspecified genome; no seqlengths
# A tibble: 2,880,404 × 10
   seqnames start   end strand transcri…¹ gene_id gene_…² junct…³ n_exo…⁴ sj_num
   <chr>    <dbl> <dbl> <chr>  <chr>      <chr>   <chr>   <chr>     <dbl>  <int>
 1 1        12058 12178 +      ENST00000… ENSG00… DDX11L1 annota…       0      1
 2 1        12058 12612 +      ENST00000… ENSG00… DDX11L1 skip          1      2
 3 1        12058 12974 +      ENST00000… ENSG00… DDX11L1 skip          2      3
 4 1        12058 13220 +      ENST00000… ENSG00… DDX11L1 skip          3      4
 5 1        12058 13452 +      ENST00000… ENSG00… DDX11L1 skip          4      5
 6 1        12228 12612 +      ENST00000… ENSG00… DDX11L1 annota…       0      6
 7 1        12228 12974 +      ENST00000… ENSG00… DDX11L1 skip          1      7
 8 1        12228 13220 +      ENST00000… ENSG00… DDX11L1 skip          2      8
 9 1        12228 13452 +      ENST00000… ENSG00… DDX11L1 skip          3      9
10 1        12698 12974 +      ENST00000… ENSG00… DDX11L1 annota…       0     10
# … with 2,880,394 more rows, and abbreviated variable names ¹​transcript_id,
#   ²​gene_name, ³​junction_type, ⁴​n_exon_skip
# A tibble: 35,813 × 11
   within_t…¹ withi…² seqna…³  start    end width strand trans…⁴ gene_id gene_…⁵
   <chr>      <list>  <fct>    <int>  <int> <int> <fct>  <chr>   <chr>   <chr>  
 1 ENST00000… <int>   1       112805 129054 16250 -      ENST00… ENSG00… ENSG00…
 2 ENST00000… <int>   1       259026 267302  8277 -      ENST00… ENSG00… ENSG00…
 3 ENST00000… <int>   1       497300 498398  1099 -      ENST00… ENSG00… ENSG00…
 4 ENST00000… <int>   1       501621 502464   844 -      ENST00… ENSG00… ENSG00…
 5 ENST00000… <int>   1       703790 720031 16242 -      ENST00… ENSG00… ENSG00…
 6 ENST00000… <int>   1       779093 803950 24858 +      ENST00… ENSG00… LINC01…
 7 ENST00000… <int>   1       784494 795469 10976 +      ENST00… ENSG00… LINC01…
 8 ENST00000… <int>   1       826924 851926 25003 +      ENST00… ENSG00… LINC01…
 9 ENST00000… <int>   1       847807 851926  4120 +      ENST00… ENSG00… LINC01…
10 ENST00000… <int>   1       852111 853390  1280 +      ENST00… ENSG00… LINC01…
# … with 35,803 more rows, 1 more variable: sj_num <int>, and abbreviated
#   variable names ¹​within_transcript_id, ²​within_sj_nums, ³​seqnames,
#   ⁴​transcript_id, ⁵​gene_name
# A tibble: 393,721 × 17
   seqnames  start    end width strand intron_…¹ intro…² um_re…³ mm_re…⁴ sampl…⁵
   <chr>     <dbl>  <dbl> <int> <chr>  <fct>     <fct>     <int>   <int> <chr>  
 1 1         15039  15795   757 -      GT-AG     -             0      41 226p1  
 2 1         15948  16606   659 -      GT-AG     -             0       6 226p1  
 3 1         16766  16857    92 -      GT-AG     -             0       9 226p1  
 4 1         17056  17232   177 -      GT-AG     -             0      57 226p1  
 5 1         17369  17605   237 -      GT-AG     -             0      11 226p1  
 6 1         17743  17914   172 -      GT-AG     -             0      46 226p1  
 7 1         18062  18267   206 -      GT-AG     -             0      33 226p1  
 8 1         18367  24737  6371 -      GT-AG     -             0      10 226p1  
 9 1        164792 165883  1092 -      GT-AG     -             0      13 226p1  
10 1        165943 168099  2157 -      GT-AG     -             0      13 226p1  
# … with 393,711 more rows, 7 more variables: transcript_id <chr>,
#   gene_id <chr>, gene_name <chr>, junction_type <chr>, n_exon_skip <dbl>,
#   sj_num <int>, sample_name <chr>, and abbreviated variable names
#   ¹​intron_motif, ²​intron_strand, ³​um_reads, ⁴​mm_reads, ⁵​sample_id
# A tibble: 4 × 5
  sample_name  total included_cassette_sj other skipped_cassette_sj
  <chr>        <int>                <int> <int>               <int>
1 AQR          70647                10491 54296                5860
2 FLUC        126314                18874 96165               11275
3 SF3B5        95901                13551 73265                9085
4 SF3B6        97425                14401 74659                8365
# A tibble: 4,984 × 14
   sample_name sj_num um_re…¹ um_re…²   pso seqna…³  start    end strand trans…⁴
   <chr>        <int>   <int>   <dbl> <dbl> <chr>    <dbl>  <dbl> <chr>  <chr>  
 1 AQR           5380     106       0     0 1       1.79e6 1.79e6 -      ENST00…
 2 AQR          14691     157       0     0 1       7.97e6 7.97e6 +      ENST00…
 3 AQR          15288     555       0     0 1       8.87e6 8.87e6 -      ENST00…
 4 AQR          18850     126       0     0 1       1.10e7 1.10e7 +      ENST00…
 5 AQR          27158      NA       0    NA 1       1.55e7 1.55e7 -      ENST00…
 6 AQR          27176      NA       0    NA 1       1.55e7 1.55e7 -      ENST00…
 7 AQR          39620      NA       0    NA 1       1.93e7 1.93e7 -      ENST00…
 8 AQR          39678     130       0     0 1       1.94e7 1.94e7 -      ENST00…
 9 AQR          40648     105       0     0 1       2.07e7 2.07e7 -      ENST00…
10 AQR          48200     148       0     0 1       2.21e7 2.21e7 +      ENST00…
# … with 4,974 more rows, 4 more variables: gene_id <chr>, gene_name <chr>,
#   junction_type <chr>, n_exon_skip <dbl>, and abbreviated variable names
#   ¹​um_reads.within, ²​um_reads, ³​seqnames, ⁴​transcript_id
…
